7ºPeriodo/ARQ_ORG/AOC_ATV2_ESTUDANTES/simulation/qsim/processador.msim.vcd
$comment
	File created using the following command:
		vcd file processador.msim.vcd -direction
$end
$date
	Wed Apr 27 22:34:29 2022
$end
$version
	ModelSim Version 2020.1
$end
$timescale
	1ps
$end

$scope module planta_vlg_vec_tst $end
$var reg 1 ! clk $end
$var reg 8 " entrada [7:0] $end
$var reg 1 # reset $end
$var wire 1 $ ena_Z_flag $end
$var wire 1 % reg_PC [7] $end
$var wire 1 & reg_PC [6] $end
$var wire 1 ' reg_PC [5] $end
$var wire 1 ( reg_PC [4] $end
$var wire 1 ) reg_PC [3] $end
$var wire 1 * reg_PC [2] $end
$var wire 1 + reg_PC [1] $end
$var wire 1 , reg_PC [0] $end
$var wire 1 - reg_R0 [7] $end
$var wire 1 . reg_R0 [6] $end
$var wire 1 / reg_R0 [5] $end
$var wire 1 0 reg_R0 [4] $end
$var wire 1 1 reg_R0 [3] $end
$var wire 1 2 reg_R0 [2] $end
$var wire 1 3 reg_R0 [1] $end
$var wire 1 4 reg_R0 [0] $end
$var wire 1 5 reg_R1 [7] $end
$var wire 1 6 reg_R1 [6] $end
$var wire 1 7 reg_R1 [5] $end
$var wire 1 8 reg_R1 [4] $end
$var wire 1 9 reg_R1 [3] $end
$var wire 1 : reg_R1 [2] $end
$var wire 1 ; reg_R1 [1] $end
$var wire 1 < reg_R1 [0] $end
$var wire 1 = saida [7] $end
$var wire 1 > saida [6] $end
$var wire 1 ? saida [5] $end
$var wire 1 @ saida [4] $end
$var wire 1 A saida [3] $end
$var wire 1 B saida [2] $end
$var wire 1 C saida [1] $end
$var wire 1 D saida [0] $end
$var wire 1 E state [2] $end
$var wire 1 F state [1] $end
$var wire 1 G state [0] $end
$var wire 1 H Z_flag $end

$scope module i1 $end
$var wire 1 I gnd $end
$var wire 1 J vcc $end
$var wire 1 K unknown $end
$var tri1 1 L devclrn $end
$var tri1 1 M devpor $end
$var tri1 1 N devoe $end
$var wire 1 O inst|op_4~35 $end
$var wire 1 P clk~combout $end
$var wire 1 Q reset~combout $end
$var wire 1 R inst5|reset_~regout $end
$var wire 1 S inst5|decod~regout $end
$var wire 1 T inst5|fetch~regout $end
$var wire 1 U inst5|inc_PC~regout $end
$var wire 1 V inst5|jmp~regout $end
$var wire 1 W inst5|SA[2]~12 $end
$var wire 1 X inst4|data[11]~17_combout $end
$var wire 1 Y inst5|SB[0]~4_combout $end
$var wire 1 Z inst4|data[11]~18_combout $end
$var wire 1 [ inst4|data[11]~15_combout $end
$var wire 1 \ inst5|SA[2]~13_combout $end
$var wire 1 ] DecodA|s0~1_combout $end
$var wire 1 ^ inst5|SB[2]~3_combout $end
$var wire 1 _ inst5|Target[0]~6_combout $end
$var wire 1 ` inst5|Target[0]~7_combout $end
$var wire 1 a DecodTarget|s0~1_combout $end
$var wire 1 b busA[5]~12 $end
$var wire 1 c DecodTarget|s0~2_combout $end
$var wire 1 d inst4|data[11]~11_combout $end
$var wire 1 e inst4|data[11]~16_combout $end
$var wire 1 f busB[7]~0_combout $end
$var wire 1 g DecodTarget|s0~3_combout $end
$var wire 1 h busA[5]~13 $end
$var wire 1 i busA[5]~14_combout $end
$var wire 1 j busB[7]~2_combout $end
$var wire 1 k busB[4]~12 $end
$var wire 1 l busB[4]~13_combout $end
$var wire 1 m inst|z[4]~80_combout $end
$var wire 1 n busB[3]~8 $end
$var wire 1 o busB[3]~9_combout $end
$var wire 1 p inst|z[3]~74_combout $end
$var wire 1 q DecodA|s0~3_combout $end
$var wire 1 r busB[0]~4 $end
$var wire 1 s busB[0]~5_combout $end
$var wire 1 t inst|op_2~5_combout $end
$var wire 1 u inst|op_1~5_combout $end
$var wire 1 v inst|z[0]~67_combout $end
$var wire 1 w DecodTarget|s0~5_combout $end
$var wire 1 x inst4|addr_ffs[0]~COMBOUT $end
$var wire 1 y busA[0]~3 $end
$var wire 1 z busA[0]~4 $end
$var wire 1 { busA[0]~5_combout $end
$var wire 1 | inst|op_4~37_cout0 $end
$var wire 1 } inst|op_4~37COUT1_41 $end
$var wire 1 ~ inst|op_4~25_combout $end
$var wire 1 !! busB[1]~14 $end
$var wire 1 "! busB[1]~15_combout $end
$var wire 1 #! inst|op_2~7 $end
$var wire 1 $! inst|op_2~7COUT1_41 $end
$var wire 1 %! inst|op_2~30_combout $end
$var wire 1 &! inst|op_1~7 $end
$var wire 1 '! inst|op_1~7COUT1_41 $end
$var wire 1 (! inst|op_1~30_combout $end
$var wire 1 )! inst|op_3~25_combout $end
$var wire 1 *! inst|z[1]~81_combout $end
$var wire 1 +! inst|z[1]~82_combout $end
$var wire 1 ,! inst4|addr_ffs[1]~COMBOUT $end
$var wire 1 -! busA[1]~18 $end
$var wire 1 .! busA[1]~19 $end
$var wire 1 /! busA[1]~20_combout $end
$var wire 1 0! inst|op_4~27 $end
$var wire 1 1! inst|op_4~27COUT1_42 $end
$var wire 1 2! inst|op_4~32 $end
$var wire 1 3! inst|op_4~32COUT1_43 $end
$var wire 1 4! inst|op_4~10_combout $end
$var wire 1 5! inst|op_4~30_combout $end
$var wire 1 6! inst|op_3~27 $end
$var wire 1 7! inst|op_3~27COUT1_36 $end
$var wire 1 8! inst|op_3~30_combout $end
$var wire 1 9! inst|op_2~32 $end
$var wire 1 :! inst|op_2~32COUT1_42 $end
$var wire 1 ;! inst|op_2~35_combout $end
$var wire 1 <! inst|op_1~32 $end
$var wire 1 =! inst|op_1~32COUT1_42 $end
$var wire 1 >! inst|op_1~35_combout $end
$var wire 1 ?! inst|z[2]~84_combout $end
$var wire 1 @! inst|z[2]~85_combout $end
$var wire 1 A! inst4|addr_ffs[2]~COMBOUT $end
$var wire 1 B! busB[2]~16 $end
$var wire 1 C! busB[2]~17_combout $end
$var wire 1 D! inst|op_2~37 $end
$var wire 1 E! inst|op_2~37COUT1_43 $end
$var wire 1 F! inst|op_2~15_combout $end
$var wire 1 G! inst|op_1~37 $end
$var wire 1 H! inst|op_1~37COUT1_43 $end
$var wire 1 I! inst|op_1~15_combout $end
$var wire 1 J! inst|op_3~32 $end
$var wire 1 K! inst|op_3~32COUT1_37 $end
$var wire 1 L! inst|op_3~10_combout $end
$var wire 1 M! inst|z[3]~72_combout $end
$var wire 1 N! inst|z[3]~73_combout $end
$var wire 1 O! inst4|addr_ffs[3]~COMBOUT $end
$var wire 1 P! busA[3]~9 $end
$var wire 1 Q! busA[3]~10 $end
$var wire 1 R! busA[3]~11_combout $end
$var wire 1 S! inst|op_4~12 $end
$var wire 1 T! inst|op_4~12COUT1_44 $end
$var wire 1 U! inst|op_4~20_combout $end
$var wire 1 V! inst|op_3~12 $end
$var wire 1 W! inst|op_3~12COUT1_38 $end
$var wire 1 X! inst|op_3~20_combout $end
$var wire 1 Y! inst|op_1~17 $end
$var wire 1 Z! inst|op_1~17COUT1_44 $end
$var wire 1 [! inst|op_1~25_combout $end
$var wire 1 \! inst|op_2~17 $end
$var wire 1 ]! inst|op_2~17COUT1_44 $end
$var wire 1 ^! inst|op_2~25_combout $end
$var wire 1 _! inst|z[4]~78_combout $end
$var wire 1 `! inst|z[4]~79_combout $end
$var wire 1 a! inst4|addr_ffs[4]~COMBOUT $end
$var wire 1 b! busA[4]~15 $end
$var wire 1 c! busA[4]~16 $end
$var wire 1 d! busA[4]~17_combout $end
$var wire 1 e! inst|op_4~22 $end
$var wire 1 f! inst|op_4~15_combout $end
$var wire 1 g! inst|op_2~27 $end
$var wire 1 h! inst|op_2~20_combout $end
$var wire 1 i! inst|op_3~22 $end
$var wire 1 j! inst|op_3~15_combout $end
$var wire 1 k! inst|op_1~27 $end
$var wire 1 l! inst|op_1~20_combout $end
$var wire 1 m! inst|z[5]~75_combout $end
$var wire 1 n! inst|z[5]~76_combout $end
$var wire 1 o! inst4|addr_ffs[5]~COMBOUT $end
$var wire 1 p! busB[5]~10 $end
$var wire 1 q! busB[5]~11_combout $end
$var wire 1 r! inst|z[5]~77_combout $end
$var wire 1 s! busA[7]~1 $end
$var wire 1 t! busA[7]~0 $end
$var wire 1 u! busA[7]~2_combout $end
$var wire 1 v! busB[6]~6 $end
$var wire 1 w! busB[6]~7_combout $end
$var wire 1 x! inst|z[6]~71_combout $end
$var wire 1 y! inst|op_4~17 $end
$var wire 1 z! inst|op_4~17COUT1_45 $end
$var wire 1 {! inst|op_4~5_combout $end
$var wire 1 |! inst|op_3~17 $end
$var wire 1 }! inst|op_3~17COUT1_39 $end
$var wire 1 ~! inst|op_3~5_combout $end
$var wire 1 !" inst|op_2~22 $end
$var wire 1 "" inst|op_2~22COUT1_45 $end
$var wire 1 #" inst|op_2~10_combout $end
$var wire 1 $" inst|op_1~22 $end
$var wire 1 %" inst|op_1~22COUT1_45 $end
$var wire 1 &" inst|op_1~10_combout $end
$var wire 1 '" inst|z[6]~69_combout $end
$var wire 1 (" inst|z[6]~70_combout $end
$var wire 1 )" inst4|addr_ffs[6]~COMBOUT $end
$var wire 1 *" busA[6]~6 $end
$var wire 1 +" busA[6]~7 $end
$var wire 1 ," busA[6]~8_combout $end
$var wire 1 -" inst|op_3~7 $end
$var wire 1 ." inst|op_3~7COUT1_40 $end
$var wire 1 /" inst|op_3~0_combout $end
$var wire 1 0" inst|op_4~7 $end
$var wire 1 1" inst|op_4~7COUT1_46 $end
$var wire 1 2" inst|op_4~0_combout $end
$var wire 1 3" inst|op_2~12 $end
$var wire 1 4" inst|op_2~12COUT1_46 $end
$var wire 1 5" inst|op_2~0_combout $end
$var wire 1 6" inst|op_1~12 $end
$var wire 1 7" inst|op_1~12COUT1_46 $end
$var wire 1 8" inst|op_1~0_combout $end
$var wire 1 9" inst|z[7]~64_combout $end
$var wire 1 :" inst|z[7]~65_combout $end
$var wire 1 ;" inst4|addr_ffs[7]~COMBOUT $end
$var wire 1 <" busB[7]~1 $end
$var wire 1 =" busB[7]~3_combout $end
$var wire 1 >" inst|z[7]~66_combout $end
$var wire 1 ?" inst4|data[10]~9_combout $end
$var wire 1 @" inst4|data[10]~10_combout $end
$var wire 1 A" inst4|data[11]~13_combout $end
$var wire 1 B" inst5|mov~regout $end
$var wire 1 C" inst5|state[2]~1_combout $end
$var wire 1 D" inst5|SA[1]~14_combout $end
$var wire 1 E" DecodA|s0~2_combout $end
$var wire 1 F" busA[2]~22 $end
$var wire 1 G" busA[2]~21 $end
$var wire 1 H" busA[2]~23_combout $end
$var wire 1 I" inst|z[2]~86_combout $end
$var wire 1 J" inst4|data[9]~14_combout $end
$var wire 1 K" inst5|Operation[1]~3_combout $end
$var wire 1 L" inst|z[1]~83_combout $end
$var wire 1 M" inst|z[0]~68_combout $end
$var wire 1 N" inst4|data[10]~12_combout $end
$var wire 1 O" inst5|arit~regout $end
$var wire 1 P" inst5|SA[0]~15_combout $end
$var wire 1 Q" inst5|SA[0]~16_combout $end
$var wire 1 R" DecodTarget|s0~4_combout $end
$var wire 1 S" inst5|state[1]~0 $end
$var wire 1 T" inst5|Operation [2] $end
$var wire 1 U" inst5|Operation [1] $end
$var wire 1 V" inst5|Operation [0] $end
$var wire 1 W" inst3 [7] $end
$var wire 1 X" inst3 [6] $end
$var wire 1 Y" inst3 [5] $end
$var wire 1 Z" inst3 [4] $end
$var wire 1 [" inst3 [3] $end
$var wire 1 \" inst3 [2] $end
$var wire 1 ]" inst3 [1] $end
$var wire 1 ^" inst3 [0] $end
$var wire 1 _" inst5|state [2] $end
$var wire 1 `" inst5|state [1] $end
$var wire 1 a" inst5|state [0] $end
$var wire 1 b" inst4|addr_ffs [7] $end
$var wire 1 c" inst4|addr_ffs [6] $end
$var wire 1 d" inst4|addr_ffs [5] $end
$var wire 1 e" inst4|addr_ffs [4] $end
$var wire 1 f" inst4|addr_ffs [3] $end
$var wire 1 g" inst4|addr_ffs [2] $end
$var wire 1 h" inst4|addr_ffs [1] $end
$var wire 1 i" inst4|addr_ffs [0] $end
$var wire 1 j" R1|FFs [7] $end
$var wire 1 k" R1|FFs [6] $end
$var wire 1 l" R1|FFs [5] $end
$var wire 1 m" R1|FFs [4] $end
$var wire 1 n" R1|FFs [3] $end
$var wire 1 o" R1|FFs [2] $end
$var wire 1 p" R1|FFs [1] $end
$var wire 1 q" R1|FFs [0] $end
$var wire 1 r" inst4|data [11] $end
$var wire 1 s" inst4|data [10] $end
$var wire 1 t" inst4|data [9] $end
$var wire 1 u" inst4|data [8] $end
$var wire 1 v" inst4|data [7] $end
$var wire 1 w" inst4|data [6] $end
$var wire 1 x" inst4|data [5] $end
$var wire 1 y" inst4|data [4] $end
$var wire 1 z" inst4|data [3] $end
$var wire 1 {" inst4|data [2] $end
$var wire 1 |" inst4|data [1] $end
$var wire 1 }" inst4|data [0] $end
$var wire 1 ~" inst5|SB [2] $end
$var wire 1 !# inst5|SB [1] $end
$var wire 1 "# inst5|SB [0] $end
$var wire 1 ## entrada~combout [7] $end
$var wire 1 $# entrada~combout [6] $end
$var wire 1 %# entrada~combout [5] $end
$var wire 1 &# entrada~combout [4] $end
$var wire 1 '# entrada~combout [3] $end
$var wire 1 (# entrada~combout [2] $end
$var wire 1 )# entrada~combout [1] $end
$var wire 1 *# entrada~combout [0] $end
$var wire 1 +# PC|FFs [7] $end
$var wire 1 ,# PC|FFs [6] $end
$var wire 1 -# PC|FFs [5] $end
$var wire 1 .# PC|FFs [4] $end
$var wire 1 /# PC|FFs [3] $end
$var wire 1 0# PC|FFs [2] $end
$var wire 1 1# PC|FFs [1] $end
$var wire 1 2# PC|FFs [0] $end
$var wire 1 3# R0|FFs [7] $end
$var wire 1 4# R0|FFs [6] $end
$var wire 1 5# R0|FFs [5] $end
$var wire 1 6# R0|FFs [4] $end
$var wire 1 7# R0|FFs [3] $end
$var wire 1 8# R0|FFs [2] $end
$var wire 1 9# R0|FFs [1] $end
$var wire 1 :# R0|FFs [0] $end
$upscope $end
$upscope $end
$enddefinitions $end
#0
$dumpvars
0!
b1 "
1#
0$
0,
0+
0*
0)
0(
0'
0&
0%
04
03
02
01
00
0/
0.
0-
0<
0;
0:
09
08
07
06
05
0D
0C
0B
0A
0@
0?
0>
0=
0G
0F
0E
0H
0I
1J
xK
1L
1M
1N
1O
0P
1Q
0R
0S
0T
0U
0V
0W
1X
1Y
0Z
0[
1\
1]
1^
0_
1`
1a
0b
0c
0d
0e
0f
0g
0h
0i
1j
0k
0l
0m
0n
0o
0p
0q
0r
0s
0t
0u
0v
1w
0x
0y
0z
0{
0|
0}
1~
0!!
0"!
1#!
1$!
0%!
0&!
0'!
0(!
0)!
0*!
0+!
0,!
0-!
0.!
0/!
10!
11!
02!
03!
14!
15!
06!
07!
08!
09!
0:!
0;!
1<!
1=!
0>!
0?!
0@!
0A!
0B!
0C!
1D!
1E!
0F!
0G!
0H!
0I!
1J!
1K!
0L!
0M!
0N!
0O!
0P!
0Q!
0R!
1S!
1T!
1U!
0V!
0W!
0X!
1Y!
1Z!
0[!
0\!
0]!
0^!
0_!
0`!
0a!
0b!
0c!
0d!
0e!
1f!
1g!
0h!
1i!
0j!
0k!
0l!
0m!
0n!
0o!
0p!
0q!
0r!
0s!
0t!
0u!
0v!
0w!
0x!
1y!
0z!
1{!
0|!
0}!
0~!
1!"
0""
0#"
1$"
1%"
0&"
0'"
0("
0)"
0*"
0+"
0,"
1-"
1."
0/"
00"
11"
12"
03"
14"
05"
06"
07"
08"
09"
0:"
0;"
0<"
0="
0>"
1?"
1@"
0A"
0B"
1C"
0D"
0E"
0F"
0G"
0H"
0I"
0J"
0K"
0L"
1M"
1N"
0O"
1P"
1Q"
0R"
1S"
1V"
zU"
0T"
0^"
0]"
0\"
0["
0Z"
0Y"
0X"
0W"
0a"
z`"
0_"
0i"
0h"
0g"
0f"
0e"
0d"
0c"
0b"
0q"
0p"
0o"
0n"
0m"
0l"
0k"
0j"
z}"
z|"
z{"
zz"
zy"
zx"
zw"
zv"
1u"
zt"
zs"
zr"
z"#
0!#
z~"
1*#
0)#
0(#
0'#
0&#
0%#
0$#
0##
02#
01#
00#
0/#
0.#
0-#
0,#
0+#
0:#
09#
08#
07#
06#
05#
04#
03#
$end
#5000
1!
1P
#10000
0!
0P
#15000
1!
1P
#20000
0!
0P
#25000
1!
1P
#30000
0!
0P
#35000
1!
1P
#40000
0!
0P
#45000
1!
1P
#50000
0#
0!
0Q
0P
#55000
1!
1P
1T
1R
1a"
1!#
0a
1W
0V"
1K"
1T"
0j
0`
0Y
0M"
1x
1G
0w
0x
#60000
0!
0P
#65000
1!
1P
1U
0T
0T"
0S"
0a"
1R"
0P"
1w
0!#
0\
0W
1M"
0Q"
1j
1E"
0]
1P"
1`
1\
1Y
0G
1F
1x
1Q"
0R"
1a
0E"
1]
#70000
0!
0P
#75000
1!
1P
12#
0U
1S
1s
1T"
1a"
1y
1,
0M"
1u
0$!
0#!
1t
1{
1G
0x
1:!
19!
1%!
1M"
1)!
1}
1|
1'!
1&!
0u
1$!
1#!
0t
0E!
0D!
1;!
1x
1*!
01!
00!
0~
1(!
0:!
09!
0%!
1]!
1\!
1F!
1+!
13!
12!
05!
1E!
1D!
0;!
0g!
1^!
0T!
0S!
04!
0]!
0\!
0F!
15"
1#"
1h!
1e!
0U!
1g!
0^!
02"
0{!
0f!
05"
0#"
0h!
#80000
0!
0P
#85000
1!
1P
1O"
0S
1_"
1V"
0K"
0j
1f
0^
0a"
1W
1S"
0+!
0*!
0x
0s
1g
0a
0`
0P"
0\
0Y
1E
0G
0F
0M"
0'!
0&!
1u
1t
0g
1c
0Q"
1E"
0]
0(!
1v
0y
1x
0{
0)!
0}
0|
0u
0t
11!
10!
1~
0v
03!
02!
15!
0x
1T!
1S!
14!
0e!
1U!
12"
1{!
1f!
#90000
0!
0P
#95000
1!
1P
0O"
1T
0_"
0V"
1K"
1j
0f
1!#
1^
1a"
1P"
0c
1\
0j
0w
1Q"
0E"
1]
0E
1G
1y
1{
1M"
1)!
1}
1|
1u
1t
1x
1*!
01!
00!
0~
1+!
13!
12!
05!
0T!
0S!
04!
1e!
0U!
02"
0{!
0f!
#100000
0!
0P
#105000
1!
1P
1i"
1U
0T
0N"
0u"
1A"
1_
1[
0T"
0S"
0a"
1R"
0P"
1w
0!#
0\
0W
0Q"
1`
1j
1\
0M"
1,!
1v
1E"
0]
1P"
1Y
0G
1F
0y
0R"
1a
1s
0E"
1]
0x
1Q"
0{
1'!
1&!
0u
0t
1y
1M"
0)!
0}
0|
0'!
0&!
1u
0$!
0#!
1t
1(!
0v
1{
1x
0*!
11!
10!
1~
0(!
1v
1:!
19!
1%!
0M"
1)!
1}
1|
1'!
1&!
0u
1$!
1#!
0t
0+!
03!
02!
15!
1*!
0x
0E!
0D!
1;!
01!
00!
0~
1(!
0v
0:!
09!
0%!
0,!
1T!
1S!
14!
1+!
1]!
1\!
1F!
13!
12!
05!
1E!
1D!
0;!
0e!
1U!
1,!
0g!
1^!
0T!
0S!
04!
0]!
0\!
0F!
12"
1{!
1f!
15"
1#"
1h!
1e!
0U!
1g!
0^!
02"
0{!
0f!
05"
0#"
0h!
#110000
0!
0P
#115000
1!
1P
11#
02#
0U
1S
1"!
0s
1T"
1a"
1.!
0y
1+
0,
0=!
0<!
0(!
1:!
19!
1%!
1M"
0'!
0&!
1u
1t
0,!
1/!
0{
1G
1>!
0E!
0D!
1;!
1x
1L"
0:!
09!
0%!
1~
0M"
0}
0|
0u
0t
1]!
1\!
1F!
1,!
1E!
1D!
0;!
0x
0~
0g!
1^!
0]!
0\!
0F!
15"
1#"
1h!
1g!
0^!
05"
0#"
0h!
#120000
0!
0P
#125000
1!
1P
1B"
0S
1_"
0C"
0j
1f
0^
0a"
1W
1S"
0P"
0"!
1g
0a
0Y
1E
0G
0F
0Q"
1=!
1<!
1(!
1%!
0.!
1y
0>!
0/!
1{
0L"
0(!
0%!
11!
10!
1~
1M"
1}
1|
1u
1t
0,!
03!
02!
15!
1x
01!
00!
0~
1T!
1S!
14!
13!
12!
05!
0e!
1U!
0T!
0S!
04!
12"
1{!
1f!
1e!
0U!
02"
0{!
0f!
#130000
0!
0P
#135000
1!
1P
0B"
1q"
1T
0_"
1C"
1j
0f
1^
1a"
1P"
0g
1!#
1<
0`
1Q"
0j
0E
1G
0w
1.!
0y
1/!
0{
1L"
1(!
1%!
1~
0M"
0}
0|
0u
0t
1,!
0x
0~
#140000
0!
0P
#145000
1!
1P
1h"
0i"
1U
0T
1d
0_
0[
1Z
0X
0T"
0S"
0a"
1R"
0P"
1w
0!#
0\
0W
0Q"
1`
1j
1\
1E"
0]
1P"
1Y
1M"
0G
1F
0.!
0R"
1a
1"!
0E"
1]
1Q"
1x
0/!
0=!
0<!
0(!
0%!
1.!
0L"
0)!
1=!
1<!
1(!
1:!
19!
1%!
11!
10!
1~
1>!
1/!
0*!
0>!
0E!
0D!
1;!
03!
02!
15!
1L"
1)!
0=!
0<!
0(!
0:!
09!
0%!
01!
00!
0~
0+!
1]!
1\!
1F!
1T!
1S!
14!
1*!
1>!
1E!
1D!
0;!
13!
12!
05!
0,!
0g!
1^!
0e!
1U!
1+!
0]!
0\!
0F!
0T!
0S!
04!
15"
1#"
1h!
12"
1{!
1f!
1,!
1g!
0^!
1e!
0U!
05"
0#"
0h!
02"
0{!
0f!
#150000
0!
0P
#155000
1!
1P
12#
0U
1S
1s
1T"
1a"
1y
1,
0M"
1u
0$!
0#!
1t
1{
1G
0x
1:!
19!
1%!
1M"
17!
16!
0)!
1}
1|
1'!
1&!
0u
1$!
1#!
0t
0E!
0D!
1;!
1x
18!
0*!
1~
1(!
0:!
09!
0%!
1]!
1\!
1F!
1@!
0+!
1E!
1D!
0;!
0g!
1^!
0]!
0\!
0F!
15"
1#"
1h!
1g!
0^!
05"
0#"
0h!
#160000
0!
0P
#165000
1!
1P
1B"
0S
1_"
0C"
0j
1f
0^
0a"
1W
1S"
0\
0"!
0s
1r
0`
0Y
1E
0G
0F
1E"
0]
0(!
1%!
0'!
0&!
1u
1t
1s
1R"
0a
0r
1z
0.!
0y
1=!
1<!
1(!
1'!
1&!
0u
0t
0s
0/!
0>!
0=!
0<!
0(!
0'!
0&!
1u
1t
0L"
07!
06!
1)!
1=!
1<!
0%!
0~
1>!
0,!
08!
1*!
0>!
0@!
1+!
#170000
0!
0P
#175000
1!
1P
1^"
0B"
1T
0_"
1C"
1j
0f
1^
1a"
0R"
0w
1!#
1\
1D
0j
0E"
1]
0E
1G
0z
1.!
1y
1/!
1L"
17!
16!
0)!
1(!
1%!
1~
1,!
18!
0*!
1@!
0+!
#180000
0!
0P
#185000
1!
1P
1i"
1U
0T
1u"
0A"
0d
1_
0Z
1X
0T"
0S"
0a"
1R"
0P"
1w
0!#
0\
0W
0Q"
1`
1E"
0]
1P"
1Y
0M"
1A!
0,!
1v
1j
1\
0G
1F
0.!
0y
0R"
1a
1Q"
1"!
1s
0x
0E"
1]
0/!
0{
1.!
1y
0=!
0<!
0(!
0%!
1'!
1&!
0u
0t
0L"
07!
06!
1:!
19!
1%!
0~
1M"
0}
0|
0'!
0&!
1u
0$!
0#!
1t
1/!
1{
1>!
0v
08!
0E!
0D!
1;!
1x
1v
1L"
17!
16!
0M"
1}
1|
1'!
1&!
0u
1$!
1#!
0t
0@!
1]!
1\!
1F!
0x
18!
1~
1(!
0v
0:!
09!
0%!
0A!
0g!
1^!
1@!
1E!
1D!
0;!
15"
1#"
1h!
1A!
0]!
0\!
0F!
1g!
0^!
05"
0#"
0h!
#190000
0!
0P
#195000
1!
1P
10#
01#
02#
0U
1S
1C!
0"!
0s
1T"
1a"
1G"
0.!
0y
1*
0+
0,
1H!
1G!
0>!
0E!
0D!
1;!
0(!
1%!
1M"
0'!
0&!
1u
1t
0A!
1,!
1H"
0/!
0{
1G
1I!
1]!
1\!
1F!
1x
1=!
1<!
1I"
1>!
1E!
1D!
0;!
0K!
0J!
08!
15!
0L"
07!
06!
0%!
0~
0M"
0}
0|
0u
0t
0g!
1^!
0>!
1A!
0]!
0\!
0F!
1L!
0@!
0,!
1K!
1J!
18!
0x
11!
10!
1~
15"
1#"
1h!
1g!
0^!
1M!
0L!
1@!
05!
05"
0#"
0h!
1N!
0M!
0N!
#200000
0!
0P
#205000
1!
1P
1O"
0S
1_"
1V"
0K"
0j
1f
0^
0T"
0a"
1W
1S"
1M"
0I"
0@!
0C!
1r
1g
0a
0P"
0\
0Y
1E
0G
0F
0A!
1I"
0H!
0G!
1>!
1;!
1s
1E"
0]
0r
0G"
0I!
1?!
1u
0$!
0#!
1t
1z
0s
0H"
1@!
1v
1:!
19!
1%!
1{
0u
1$!
1#!
0t
0I"
0>!
0E!
0D!
08!
03!
02!
15!
1A!
1x
1+!
0M"
1)!
1}
1|
1u
1t
0v
0:!
09!
0%!
1]!
1\!
1F!
1T!
1S!
14!
1,!
0x
01!
00!
0~
1v
1E!
1D!
0;!
0+!
0g!
1^!
1N!
0e!
1U!
13!
12!
05!
1x
0]!
0\!
0F!
0?!
0,!
15"
1#"
1h!
1_!
1O!
12"
1{!
1f!
0T!
0S!
04!
0@!
1g!
0^!
0N!
19"
1'"
1n!
1`!
1e!
0U!
0A!
05"
0#"
0h!
0_!
0O!
1:"
1("
1o!
1a!
02"
0{!
0f!
0`!
09"
0'"
0n!
1;"
1)"
0:"
0("
0a!
0o!
0;"
0)"
#210000
0!
0P
#215000
1!
1P
0O"
1T
0_"
0Q"
0V"
1K"
1j
0f
1!#
1^
1T"
1a"
1P"
0g
1\
0z
1M"
1*!
0v
0x
0j
0`
1Q"
0E"
1]
0E
1G
0{
1x
1+!
0w
1G"
0M"
0)!
0}
0|
0u
0t
1H"
0x
0*!
11!
10!
1~
1I"
1>!
1;!
18!
15!
0+!
05!
1A!
1@!
#220000
0!
0P
#225000
1!
1P
1g"
0h"
0i"
1U
0T
0u"
1J"
1A"
1e
0_
0X
0T"
0S"
0a"
1R"
0P"
1w
0!#
0\
0W
0Q"
1`
1P"
1Y
1M"
1j
1E"
0]
1\
0G
1F
0G"
0R"
1a
1Q"
1C!
1x
0E"
1]
0H"
1G"
1H!
1G!
0>!
0;!
0I"
0H!
0G!
1>!
0E!
0D!
1;!
08!
03!
02!
15!
1H"
1I!
0I!
1]!
1\!
1F!
0@!
1T!
1S!
14!
1I"
1H!
1G!
0>!
1E!
1D!
0;!
18!
13!
12!
05!
0g!
1^!
0A!
0e!
1U!
1I!
0]!
0\!
0F!
1@!
0T!
0S!
04!
15"
1#"
1h!
12"
1{!
1f!
1g!
0^!
1A!
1e!
0U!
05"
0#"
0h!
02"
0{!
0f!
#230000
0!
0P
#235000
1!
1P
12#
0U
1S
1s
1T"
1a"
1y
1,
0M"
1u
0$!
0#!
1t
1{
1G
0x
1:!
19!
1%!
1M"
1)!
1}
1|
1'!
1&!
0u
1$!
1#!
0t
0E!
0D!
1;!
1x
1*!
01!
00!
0~
1(!
0:!
09!
0%!
1]!
1\!
1F!
1+!
15!
1E!
1D!
0;!
0g!
1^!
0]!
0\!
0F!
15"
1#"
1h!
1g!
0^!
05"
0#"
0h!
#240000
0!
0P
#245000
1!
1P
1V
0S
1_"
0C"
0a"
1W
1S"
0\
1E
0G
0F
1E"
0]
1z
0G"
0y
0H"
0I"
0H!
0G!
1>!
0E!
0D!
1;!
08!
05!
0A!
0I!
1]!
1\!
1F!
0@!
0g!
1^!
15"
1#"
1h!
#250000
0!
0P
#255000
1!
1P
00#
0V
1T
0C!
0_"
1C"
0`
0Y
1a"
1!#
0a
1\
0*
0>!
1E!
1D!
0;!
0w
0s
0j
0E"
1]
0E
1G
0]!
0\!
0F!
0'!
0&!
1u
1t
0z
1y
1g!
0^!
0(!
05"
0#"
0h!
#260000
0!
0P
#265000
1!
1P
0g"
1i"
1U
0T
0J"
0e
1_
1[
1X
0T"
0S"
0a"
1R"
0P"
1w
0!#
0\
0W
0Q"
1`
1j
1\
1P"
1Y
0M"
1,!
1v
1E"
0]
0G
1F
0y
0R"
1a
1s
0E"
1]
1Q"
0x
0{
1'!
1&!
0u
0t
1y
1M"
0)!
0}
0|
0'!
0&!
1u
0$!
0#!
1t
1(!
0v
1{
1x
0*!
11!
10!
1~
0(!
1v
1:!
19!
1%!
0M"
1)!
1}
1|
1'!
1&!
0u
1$!
1#!
0t
0+!
03!
02!
15!
1*!
0x
0E!
0D!
1;!
01!
00!
0~
1(!
0v
0:!
09!
0%!
0,!
1T!
1S!
14!
1+!
1]!
1\!
1F!
13!
12!
05!
1E!
1D!
0;!
0e!
1U!
1,!
0g!
1^!
0T!
0S!
04!
0]!
0\!
0F!
12"
1{!
1f!
15"
1#"
1h!
1e!
0U!
1g!
0^!
02"
0{!
0f!
05"
0#"
0h!
#270000
0!
0P
#275000
1!
1P
11#
02#
0U
1S
1"!
0s
1T"
1a"
1.!
0y
1+
0,
0=!
0<!
0(!
1:!
19!
1%!
1M"
0'!
0&!
1u
1t
0,!
1/!
0{
1G
1>!
0E!
0D!
1;!
1x
1L"
0:!
09!
0%!
1~
0M"
0}
0|
0u
0t
1]!
1\!
1F!
1,!
1E!
1D!
0;!
0x
0~
0g!
1^!
0]!
0\!
0F!
15"
1#"
1h!
1g!
0^!
05"
0#"
0h!
#280000
0!
0P
#285000
1!
1P
1B"
0S
1_"
0C"
0j
1f
0^
0a"
1W
1S"
0P"
0"!
1r
1g
0a
0Y
1E
0G
0F
0Q"
1=!
1<!
1(!
1%!
1s
0r
0.!
1y
0>!
1u
0$!
0#!
1t
0s
0/!
1{
0%!
0u
1$!
1#!
0t
0L"
0(!
11!
10!
1~
1M"
1}
1|
1u
1t
0,!
03!
02!
15!
1x
01!
00!
0~
1T!
1S!
14!
13!
12!
05!
0e!
1U!
0T!
0S!
04!
12"
1{!
1f!
1e!
0U!
02"
0{!
0f!
#290000
0!
0P
